// Jest Snapshot v1, https://goo.gl/fbAQLP

exports[`<Image /> snapshots matches snapshot - favorite 1`] = `
<Image
  imageId="807dbea2-6885-4887-91b1-7dbb81d8ee32"
  imageUrl="/foo-bar"
  isFavorite={true}
  onClick={[Function]}
  onLoaded={[Function]}
>
  <div
    className="imageContainer"
    onClick={[Function]}
    onMouseOut={null}
    onMouseOver={null}
    role="button"
    style={
      Object {
        "gridRowEnd": "span 0",
      }
    }
  >
    <img
      className="image"
      onLoad={[Function]}
      src="/foo-bar"
    />
    <div
      className="favoriteOVerlay slideIn"
    >
      <svg
        aria-label="Remove From Favorites"
        className="img"
        role="img"
      >
        <use
          xlinkHref="#svg-icon_favorite--filled"
        />
      </svg>
    </div>
  </div>
</Image>
`;

exports[`<Image /> snapshots matches snapshot - unfavorite 1`] = `
<Image
  imageId="807dbea2-6885-4887-91b1-7dbb81d8ee32"
  imageUrl="/foo-bar"
  isFavorite={false}
  onClick={[Function]}
  onLoaded={[Function]}
>
  <div
    className="imageContainer"
    onClick={[Function]}
    onMouseOut={[Function]}
    onMouseOver={[Function]}
    role="button"
    style={
      Object {
        "gridRowEnd": "span 0",
      }
    }
  >
    <img
      className="image"
      onLoad={[Function]}
      src="/foo-bar"
    />
    <div
      className="favoriteOVerlay slideOut"
    >
      <svg
        aria-label="Add To Favorites"
        className="img"
        role="img"
      >
        <use
          xlinkHref="#svg-icon_favorite"
        />
      </svg>
    </div>
  </div>
</Image>
`;
